…
``` r
mu_4_3 <- samples_4_3 %>%
  mutate(mu = map2(a, b, ~ .x + .y * grid_4_3),
         weight_centered = list(grid_4_3)) %>%
  unnest(c("mu", "weight_centered")) %>%
  group_by(weight_centered) %>%
  summarise(mu_mean = mean(mu),
            mu_PI_89 = list(PI(mu))) %>%
  unnest_wider(mu_PI_89)

mu_4_3
```

    ## # A tibble: 100 × 4
    ##    weight_centered mu_mean  `5%` `94%`
    ##              <dbl>   <dbl> <dbl> <dbl>
    ##  1           -13.9    142.  141.  143.
    ##  2           -13.6    142.  141.  143.
    ##  3           -13.3    143.  142.  144.
    ##  4           -13.0    143.  142.  144.
    ##  5           -12.6    143.  142.  144.
    ##  6           -12.3    143.  143.  144.
    ##  7           -12.0    144.  143.  145.
    ##  8           -11.7    144.  143.  145.
    ##  9           -11.3    144.  143.  145.
    ## 10           -11.0    145.  144.  146.
    ## # … with 90 more rows
…
``` r
mu_4_3b <- samples_4_3b %>%
  mutate(mu = map2(a, b, ~ .x + .y * grid_4_3b),
         weight = list(grid_4_3b)) %>%
  unnest(c("mu", "weight")) %>%
  group_by(weight) %>%
  summarise(mu_mean = mean(mu),
            mu_PI_89 = list(PI(mu))) %>%
  unnest_wider(mu_PI_89)

mu_4_3b
```

    ## # A tibble: 100 × 4
    ##    weight mu_mean  `5%` `94%`
    ##     <dbl>   <dbl> <dbl> <dbl>
    ##  1   31.1    142.  141.  143.
    ##  2   31.4    143.  142.  144.
    ##  3   31.7    143.  142.  144.
    ##  4   32.0    143.  142.  144.
    ##  5   32.4    143.  142.  144.
    ##  6   32.7    144.  143.  145.
    ##  7   33.0    144.  143.  145.
    ##  8   33.3    144.  143.  145.
    ##  9   33.7    145.  144.  145.
    ## 10   34.0    145.  144.  146.
    ## # … with 90 more rows
…
``` r
n_lines <- 100

prior_4H2 <- tibble(
n = 1: n_lines,
a = rnorm(n_lines, 120, 20),
b = rlnorm(n_lines, 0, 0.5)) %>%
  expand(nesting(n, a, b), weight_centered = range(d3$weight_centered)) %>%
  mutate(height = a + b * weight_centered)

prior_4H2
```

    ## # A tibble: 200 × 5
    ##        n     a     b weight_centered height
    ##    <int> <dbl> <dbl>           <dbl>  <dbl>
    ##  1     1  110. 1.20            -14.2   92.6
    ##  2     1  110. 1.20             26.3  141. 
    ##  3     2  134. 0.607           -14.2  126. 
    ##  4     2  134. 0.607            26.3  150. 
    ##  5     3  100. 0.695           -14.2   90.5
    ##  6     3  100. 0.695            26.3  119. 
    ##  7     4  125. 0.605           -14.2  116. 
    ##  8     4  125. 0.605            26.3  141. 
    ##  9     5  115. 1.54            -14.2   92.7
    ## 10     5  115. 1.54             26.3  155. 
    ## # … with 190 more rows
…
``` r
mu_4H2 <- samples_4H2 %>%
  mutate(mu = map2(a, b, ~ .x + .y * grid_4H2),
         weight_centered = list(grid_4H2)) %>%
  unnest(c("mu", "weight_centered")) %>%
  group_by(weight_centered) %>%
  summarise(mu_mean = mean(mu),
            mu_PI_89 = list(PI(mu))) %>%
  unnest_wider(mu_PI_89)

mu_4H2
```

    ## # A tibble: 100 × 4
    ##    weight_centered mu_mean  `5%` `94%`
    ##              <dbl>   <dbl> <dbl> <dbl>
    ##  1           -14.2    69.9  68.1  71.8
    ##  2           -13.8    71.0  69.3  72.9
    ##  3           -13.3    72.1  70.4  73.9
    ##  4           -12.9    73.3  71.5  75.0
    ##  5           -12.5    74.4  72.7  76.1
    ##  6           -12.1    75.5  73.8  77.1
    ##  7           -11.7    76.6  75.0  78.2
    ##  8           -11.3    77.7  76.1  79.3
    ##  9           -10.9    78.8  77.3  80.4
    ## 10           -10.5    79.9  78.4  81.4
    ## # … with 90 more rows
…
height_4H2
```

    ## # A tibble: 100 × 4
    ##    weight_centered height_mean  `2%` `98%`
    ##              <dbl>       <dbl> <dbl> <dbl>
    ##  1           -14.2        69.9  51.2  88.6
    ##  2           -13.8        71.0  52.7  89.3
    ##  3           -13.3        72.3  53.1  91.1
    ##  4           -12.9        73.1  54.8  91.9
    ##  5           -12.5        74.4  56.0  93.1
    ##  6           -12.1        75.5  56.7  93.6
    ##  7           -11.7        76.7  58.1  95.5
    ##  8           -11.3        77.7  58.9  96.5
    ##  9           -10.9        78.7  60.3  97.0
    ## 10           -10.5        80.0  62.0  98.2
    ## # … with 90 more rows
…
``` r
n_lines <- 100

prior_4H3 <- tibble(
n = 1: n_lines,
a = rnorm(n_lines, 120, 20),
b = rlnorm(n_lines, 0, 1)) %>%
  expand(nesting(n, a, b), log_weight_centered = range(d$log_weight_centered)) %>%
  mutate(height = a + b * log_weight_centered)

prior_4H3
```

    ## # A tibble: 200 × 5
    ##        n     a     b log_weight_centered height
    ##    <int> <dbl> <dbl>               <dbl>  <dbl>
    ##  1     1  125. 0.420              -1.99    124.
    ##  2     1  125. 0.420               0.701   125.
    ##  3     2  128. 2.65               -1.99    122.
    ##  4     2  128. 2.65                0.701   129.
    ##  5     3  146. 0.319              -1.99    145.
    ##  6     3  146. 0.319               0.701   146.
    ##  7     4  112. 1.18               -1.99    110.
    ##  8     4  112. 1.18                0.701   113.
    ##  9     5  120. 0.947              -1.99    118.
    ## 10     5  120. 0.947               0.701   121.
    ## # … with 190 more rows
…
``` r
mu_4H3 <- samples_4H3 %>%
  mutate(mu = map2(a, b, ~ .x + .y * grid_4H3),
         log_weight_centered = list(grid_4H3)) %>%
  unnest(c("mu", "log_weight_centered")) %>%
  group_by(log_weight_centered) %>%
  summarise(mu_mean = mean(mu),
            mu_PI_89 = list(PI(mu))) %>%
  unnest_wider(mu_PI_89)

mu_4H3
```

    ## # A tibble: 100 × 4
    ##    log_weight_centered mu_mean  `5%` `94%`
    ##                  <dbl>   <dbl> <dbl> <dbl>
    ##  1               -1.99    44.4  43.1  45.6
    ##  2               -1.97    45.6  44.4  46.9
    ##  3               -1.94    46.9  45.7  48.2
    ##  4               -1.91    48.2  47.0  49.4
    ##  5               -1.89    49.5  48.3  50.7
    ##  6               -1.86    50.8  49.6  52.0
    ##  7               -1.83    52.1  50.9  53.2
    ##  8               -1.80    53.3  52.2  54.5
    ##  9               -1.78    54.6  53.5  55.8
    ## 10               -1.75    55.9  54.8  57.0
    ## # … with 90 more rows
…
height_4H3
```

    ## # A tibble: 100 × 4
    ##    log_weight_centered height_mean  `5%` `94%`
    ##                  <dbl>       <dbl> <dbl> <dbl>
    ##  1               -1.99        44.2  35.9  52.5
    ##  2               -1.97        45.7  37.4  54.1
    ##  3               -1.94        46.9  38.6  55.1
    ##  4               -1.91        48.2  39.7  56.5
    ##  5               -1.89        49.5  41.3  57.7
    ##  6               -1.86        50.8  42.6  59.2
    ##  7               -1.83        52.1  43.7  60.4
    ##  8               -1.80        53.3  45.0  61.6
    ##  9               -1.78        54.7  46.6  63.2
    ## 10               -1.75        55.9  47.7  64.0
    ## # … with 90 more rows
…
